{
  "project_info": {
    "project_number": "355676315423",
    "firebase_url": "https://imagetranslator-88321.firebaseio.com",
    "project_id": "imagetranslator-88321",
    "storage_bucket": "imagetranslator-88321.appspot.com"
  },
  "client": [
    {
      "client_info": {
        "mobilesdk_app_id": "1:355676315423:android:dff69533184bc5b9",
        "android_client_info": {
          "package_name": "com.example.imagetranslator"
        }
      },
      "oauth_client": [
        {
          "client_id": "355676315423-be5bcke74vfbjk5otd5bocnpqmodg5aq.apps.googleusercontent.com",
          "client_type": 3
        }
      ],
      "api_key": [
        {
          "current_key": "AIzaSyCxDsPPNr1sTYwqPGagaModTuDFOtj1lXY"
        }
      ],
      "services": {
        "appinvite_service": {
          "other_platform_oauth_client": [
            {
              "client_id": "355676315423-be5bcke74vfbjk5otd5bocnpqmodg5aq.apps.googleusercontent.com",
              "client_type": 3
            }
          ]
        }
      }
    }
  ],
  "configuration_version": "1"
}